W1,1,46,46
W2,1,46,45
W3,1,45,45
W4,1,47,47
W5,1,41,41
W6,1,45,44
W7,1,43,43
W8,1,43,43
W9,1,43,43
W10,1,41,41
W11,1,40,40
W12,1,42,42
W13,1,43,43
W14,1,47,47
W1,2,45,45
W2,2,44,44
W3,2,41,41
W4,2,42,42
W1,3,51,51
W2,3,50,49
W3,3,47,47
W4,3,38,38
W5,3,40,40
W6,3,40,40
W7,3,41,41
W8,3,38,38
W9,3,40,40
W1,4,35,35
W1,6,44,44
W1,7,41,41
W2,7,42,42
W3,7,44,44
W4,7,41,41
W5,7,43,43
W6,7,42,42
W7,7,46,46
W8,7,46,46
W9,7,44,44
W10,7,38,38
W11,7,44,44
W12,7,45,45
W1,8,40,40
W2,8,42,42
W3,8,44,44
W4,8,45,45
W5,8,42,42
W6,8,40,40
W7,8,41,41
W8,8,46,46
W9,8,41,41
W10,8,41,41
W11,8,44,44
W12,8,40,40
W13,8,39,39
W14,8,43,43
W1,9,44,43
W2,9,39,39
W1,10,50,50
W2,10,57,57
W3,10,51,51
W4,10,50,50
W5,10,43,43
W6,10,47,47
W7,10,42,42
W8,10,43,43
W9,10,45,45
W10,10,46,46
W1,11,54,53
W2,11,46,46
W3,11,45,45
W4,11,45,45
W5,11,45,45
W6,11,45,45
W7,11,49,44
W8,11,47,47
W9,11,55,52
W1,12,66,60
W2,12,46,46
W3,12,53,53
W4,12,53,53
W5,12,55,54
W6,12,58,58
W7,12,47,47
W8,12,55,54
W9,12,49,49
W10,12,48,48
W11,12,52,52
W12,12,48,48
W1,14,47,47
W2,14,46,46
W1,15,45,45
W2,15,43,43
W3,15,41,41
W4,15,41,41
W5,15,44,44
W6,15,45,45
W7,15,46,46
W8,15,43,43
W9,15,35,35
W10,15,39,39
W11,15,44,44
W1,16,56,56
W2,16,50,50
W3,16,48,48
W4,16,52,52
W5,16,45,45
W6,16,41,41
W7,16,48,48
W8,16,46,46
W9,16,44,44
W10,16,42,42
W1,18,59,59
W2,18,55,55
W1,20,63,63
W2,20,72,70
W3,20,59,58
W4,20,58,58
W5,20,59,59
W6,20,58,58
W7,20,56,56
W8,20,53,53
W9,20,45,45
W10,20,59,59
W11,20,54,54
W12,20,58,58
W1,21,67,64
W2,21,48,48
W3,21,51,51
W4,21,49,49
W5,21,57,57
W6,21,49,49
W7,21,56,55
W8,21,49,49
W9,21,48,48
W10,21,51,51
W11,21,68,65
W12,21,59,57
W13,21,46,46
W1,22,41,41
W2,22,43,43
W3,22,40,40
W4,22,43,43
W5,22,40,40
W6,22,41,41
W7,22,44,44
W8,22,44,43
W9,22,40,40
W10,22,41,41
W11,22,43,43
W12,22,44,44
W13,22,41,41
W1,23,51,51
W2,23,44,44
W3,23,46,46
W4,23,44,43
W5,23,42,42
W6,23,42,42
W7,23,44,43
W8,23,45,45
W9,23,43,43
W10,23,36,36
W11,23,42,41
W12,23,39,39
W13,23,42,42
W14,23,39,39
W1,25,52,52
W2,25,52,52
W3,25,53,53
W4,25,44,44
W5,25,45,45
W6,25,43,43
W7,25,39,39
W8,25,47,47
W9,25,45,45
W10,25,54,53
W1,26,42,41
W2,26,41,41
W3,26,41,41
W1,28,42,42
W2,28,41,41
W3,28,42,42
W4,28,41,41
W5,28,39,39
W6,28,39,39
W7,28,44,44
W8,28,43,42
W9,28,43,43
W1,30,42,42
W2,30,50,50
W3,30,47,47
W4,30,47,47
W5,30,46,46
W6,30,45,45
W1,31,47,47
W2,31,45,45
W3,31,40,40
W4,31,46,46
W5,31,39,39
W6,31,41,41
W7,31,42,42
W8,31,45,45
W9,31,42,42
W10,31,41,41
W11,31,43,43
W12,31,40,40
W13,31,43,43
W14,31,44,44
W1,32,70,67
W2,32,52,52
W3,32,59,59
W1,33,50,50
W2,33,53,52
W3,33,46,46
W4,33,46,46
W5,33,40,40
W6,33,41,41
W7,33,40,40
W8,33,46,46
W9,33,42,42
W10,33,49,48
W11,33,49,48
W1,37,42,42
W2,37,44,44
W3,37,40,40
W4,37,40,40
W5,37,37,37
W6,37,38,38
W7,37,41,41
W8,37,41,41
W9,37,39,39
W10,37,42,42
W11,37,39,39
W12,37,44,44
W13,37,40,40
W1,39,38,38
W2,39,38,38
W3,39,38,38
W4,39,39,39
W5,39,38,38
W6,39,39,39
W7,39,37,37
W8,39,35,35
W9,39,40,40
W10,39,38,38
W11,39,40,40
W12,39,37,37
W13,39,42,42
W14,39,40,40
W1,41,37,37
W2,41,40,40
W3,41,37,37
W4,41,38,38
W5,41,35,35
W6,41,37,37
W7,41,39,39
W8,41,37,37
W9,41,35,35
W10,41,37,37
W11,41,37,37
W12,41,35,35
W13,41,36,36
W14,41,35,35
W1,42,42,42
W2,42,39,39
W3,42,37,37
W4,42,38,38
W5,42,38,38
W6,42,37,37
W7,42,38,38
W8,42,35,35
W9,42,33,33
W10,42,35,35
W11,42,34,34
W12,42,34,34
W13,42,36,36
W14,42,35,35
W1,44,49,49
W2,44,47,46
W3,44,45,45
W1,45,41,41
W2,45,40,40
W3,45,39,39
W4,45,40,40
W5,45,41,41
W6,45,41,41
W7,45,38,38
W8,45,39,38
W9,45,40,40
W10,45,36,36
W11,45,36,36
W12,45,38,38
W13,45,36,36
W1,46,47,47
W2,46,50,50
W3,46,52,52
W1,47,48,48
W2,47,50,50
W3,47,51,51
W4,47,50,50
W5,47,43,43
W6,47,44,44
W7,47,40,40
W8,47,44,44
W9,47,45,45
W10,47,42,42
W11,47,41,40
W12,47,44,44
W13,47,43,43
W1,50,46,46
W2,50,47,45
W3,50,52,52
W4,50,45,45
W5,50,44,44
W6,50,47,47
W7,50,40,40
W8,50,41,41
W9,50,44,44
W10,50,46,46
W11,50,43,43
W12,50,44,44
W13,50,43,43
W1,51,45,44
W2,51,44,44
W3,51,47,46
W4,51,42,42
W5,51,43,43
W6,51,46,46
W7,51,36,36
W8,51,42,42
W9,51,42,42
W10,51,43,43
W1,53,42,42
W2,53,42,42
W3,53,42,42
W4,53,41,41
W5,53,41,41
W6,53,39,39
W7,53,40,40
W8,53,41,41
W9,53,41,41
W1,54,53,53
W2,54,52,52
W3,54,53,53
W4,54,46,46
W5,54,51,51
W6,54,48,48
W7,54,52,52
W1,55,49,49
W2,55,51,49
W3,55,49,49
W4,55,52,52
W5,55,50,49
W6,55,45,45
W7,55,50,50
W8,55,45,45
W1,56,43,43
W2,56,41,41
W3,56,41,41
W4,56,39,39
W5,56,38,38
W6,56,43,43
W7,56,40,40
W8,56,37,37
W1,57,52,50
W2,57,44,44
W3,57,42,42
W1,59,42,42
W2,59,43,43
W3,59,45,45
W4,59,46,46
W5,59,42,42
W1,60,49,47
W2,60,44,44
W3,60,41,41
W4,60,43,43
W5,60,42,42
W6,60,40,39
W7,60,47,47
W8,60,40,40
W9,60,43,43
W10,60,40,40
W11,60,44,44
W1,61,49,49
W2,61,44,44
W3,61,43,43
W4,61,41,41
W5,61,39,39
W6,61,41,41
W7,61,43,43
W8,61,40,40
W9,61,44,44
W1,63,41,41
W2,63,40,40
W3,63,37,37
W4,63,37,37
W5,63,37,37
W6,63,42,40
W7,63,36,36
W8,63,31,31
W9,63,36,36
W10,63,42,42
W11,63,39,39
W1,64,45,45
W2,64,43,43
W1,65,39,39
W2,65,43,43
W1,69,44,43
W2,69,37,37
W3,69,43,43
W4,69,41,41
W5,69,40,40
W6,69,40,40
W7,69,38,38
W8,69,38,38
W9,69,41,41
W10,69,42,41
W11,69,39,39
W12,69,43,43
W1,70,58,56
W2,70,65,62
W3,70,59,57
W4,70,55,55
W5,70,56,56
W6,70,57,57
W7,70,60,60
W8,70,55,55
W9,70,51,50
W10,70,54,53
W11,70,51,51
W12,70,54,54
W13,70,55,55
W1,71,56,56
W2,71,59,59
W3,71,57,57
W4,71,59,59
W5,71,52,52
W6,71,54,54
W1,72,49,49
W2,72,47,47
W3,72,47,47
W4,72,50,50
W1,73,53,52
W2,73,47,45
W3,73,41,41
W4,73,50,50
W5,73,49,47
W6,73,44,44
W1,74,46,46
W1,75,49,49
W2,75,47,47
W3,75,50,50
W4,75,49,49
W5,75,45,45
W6,75,46,46
W7,75,46,46
W8,75,45,45
W9,75,44,44
W10,75,46,46
W11,75,44,44
W12,75,46,46
W13,75,48,48
W14,75,55,54
W1,76,49,49
W2,76,52,52
W1,77,44,44
W1,78,48,48
W2,78,48,48
W3,78,43,43
W4,78,48,48
W5,78,48,48
W6,78,46,46
W7,78,49,49
W8,78,45,45
W9,78,44,44
W10,78,48,48
W1,79,47,47
W2,79,46,46
W3,79,51,51
W1,82,50,50
W2,82,49,49
W3,82,44,44
W4,82,43,43
W5,82,50,50
W1,83,52,52
W2,83,51,51
W3,83,48,48
W4,83,52,52
W5,83,48,48
W6,83,48,48
W7,83,47,47
W1,84,50,49
W2,84,49,49
W3,84,46,46
W4,84,43,43
W5,84,43,43
W6,84,47,44
W7,84,46,46
W8,84,47,47
W9,84,46,46
W10,84,45,45
W1,85,46,45
W2,85,42,42
W3,85,37,37
W4,85,43,43
W5,85,41,41
W6,85,40,40
W1,86,45,45
W2,86,42,42
W3,86,52,51
W4,86,45,45
W5,86,46,46
W6,86,47,47
W7,86,40,40
W8,86,47,47
W9,86,47,46
W10,86,52,50
W11,86,49,48
W12,86,50,50
W1,87,54,54
W2,87,53,53
W3,87,51,51
W4,87,49,49
W5,87,49,49
W6,87,49,49
W7,87,52,52
W1,88,49,49
W2,88,41,41
W3,88,40,40
W4,88,43,43
W5,88,39,39
W6,88,39,39
W7,88,44,44
W8,88,37,37
W9,88,40,40
W10,88,40,40
W11,88,43,43